{
  "$schema": "https://docs.renovatebot.com/renovate-schema.json",
  "assignees": [
    "PatrickRice"
  ],
  "baseBranches": [
    "master",
    "main"
  ],
  "labels": [
    "renovate"
  ],
  "gitNoVerify": [],
  "hostRules": [
    {
      "matchHost": "github.com",
      "concurrentRequestLimit": 1
    }
  ],
  "extends": [
    "config:base",
    ":prHourlyLimitNone",
    ":prConcurrentLimitNone",
    ":enableVulnerabilityAlerts",
    "group:allNonMajor"
  ]
}
